tests/local_test/corruption.vcd
$date
    Jun 12, 2025
$end
$version
    Generated Address and Data Corruption VCD
$end
$timescale
    1 ps
$end
$scope module test $end
$scope module apb_if $end
$var wire      1 # clk  $end
$var wire      1 $ rst_n  $end
$var reg      32 % paddr [31:0] $end
$var reg      32 & pwdata [31:0] $end
$var reg       1 ' pwrite $end
$var reg       1 ( psel $end
$var reg       1 ) penable $end
$var reg       1 * pready $end
$var reg      32 + prdata [31:0] $end
$upscope $end
$upscope $end
$enddefinitions $end
$dumpvars
0#
1$
b0 %
b0 &
0'
0(
0)
0*
b0 +
$end
#5000
1#
b11010000100000001000010001010 %
b0000000011110000 &
1'
1(
0)
0*
#10000
0#
#15000
1#
1)
1*
b11010000100000001000010001110 %
b0000000011110000 &
#20000
0#
0(
0)
0*
#25000
1#
b11010000100000000000011000001 %
b11010101 &
1'
1(
0)
0*
#30000
0#
#35000
1#
#40000
0#
1)
1*
b11011101 &
#45000
1#
0(
0)
0*
#50000
0#
#55000
1#
b11010000100000001000010000110 %
b0000000011110000 &
1'
1(
0)
0*
#60000
0#
#65000
1#
1)
1*
b11010000100000001000010000010 %
b0000000011110000 &
